Verilog/testbenchs34.vcd
$date
	Mon Jun 29 12:09:58 2026
$end
$version
	Icarus Verilog
$end
$timescale
	10ps
$end
$scope module testbench $end
$var wire 16 ! nand_data [15:0] $end
$var wire 1 " nand_rnb $end
$var wire 1 # nand_nwp $end
$var wire 1 $ nand_nwe $end
$var wire 1 % nand_nre $end
$var wire 1 & nand_nce $end
$var wire 1 ' nand_cle $end
$var wire 1 ( nand_ale $end
$var wire 8 ) data_out [7:0] $end
$var wire 1 * busy $end
$var reg 1 + activate $end
$var reg 1 , clk $end
$var reg 6 - cmd_in [5:0] $end
$var reg 8 . data_in [7:0] $end
$var reg 1 / nreset $end
$scope module NM $end
$var wire 1 + activate $end
$var wire 1 , clk $end
$var wire 6 0 cmd_in [5:0] $end
$var wire 8 1 data_in [7:0] $end
$var wire 1 2 enable $end
$var wire 16 3 nand_data [15:0] $end
$var wire 1 " nand_rnb $end
$var wire 1 / nreset $end
$var wire 1 4 io_wr_io_ctrl $end
$var wire 16 5 io_wr_data_out [15:0] $end
$var wire 1 6 io_wr_busy $end
$var wire 1 7 io_rd_io_ctrl $end
$var wire 16 8 io_rd_data_out [15:0] $end
$var wire 1 9 io_rd_busy $end
$var wire 1 : cle_write_enable $end
$var wire 1 ; cle_latch_ctrl $end
$var wire 16 < cle_data_out [15:0] $end
$var wire 1 = cle_busy $end
$var wire 1 > ale_write_enable $end
$var wire 1 ? ale_latch_ctrl $end
$var wire 16 @ ale_data_out [15:0] $end
$var wire 1 A ale_busy $end
$var reg 11 B addr_cycles [10:0] $end
$var reg 1 C ale_activate $end
$var reg 16 D ale_data_in [15:0] $end
$var reg 1 * busy $end
$var reg 32 E byte_count [31:0] $end
$var reg 1 F cle_activate $end
$var reg 16 G cle_data_in [15:0] $end
$var reg 32 H data_bytes_per_page [31:0] $end
$var reg 8 I data_out [7:0] $end
$var reg 32 J delay [31:0] $end
$var reg 1 K io_rd_activate $end
$var reg 16 L io_rd_data_in [15:0] $end
$var reg 1 M io_wr_activate $end
$var reg 16 N io_wr_data_in [15:0] $end
$var reg 6 O n_state [5:0] $end
$var reg 5 P n_substate [4:0] $end
$var reg 1 ( nand_ale $end
$var reg 1 ' nand_cle $end
$var reg 16 Q nand_data_reg [15:0] $end
$var reg 1 & nand_nce $end
$var reg 1 % nand_nre $end
$var reg 1 $ nand_nwe $end
$var reg 1 # nand_nwp $end
$var reg 32 R oob_bytes_per_page [31:0] $end
$var reg 32 S page_idx [31:0] $end
$var reg 6 T state [5:0] $end
$var reg 8 U status [7:0] $end
$var reg 5 V substate [4:0] $end
$var reg 32 W tmp_int [31:0] $end
$scope module AAL $end
$var wire 1 C activate $end
$var wire 1 , clk $end
$var wire 16 X data_in [15:0] $end
$var wire 1 Y latch_type $end
$var wire 1 > write_enable $end
$var wire 1 ? latch_ctrl $end
$var wire 16 Z data_out [15:0] $end
$var wire 1 A busy $end
$var reg 32 [ delay [31:0] $end
$var reg 2 \ n_state [1:0] $end
$var reg 2 ] state [1:0] $end
$upscope $end
$scope module ACL $end
$var wire 1 F activate $end
$var wire 1 , clk $end
$var wire 16 ^ data_in [15:0] $end
$var wire 1 _ latch_type $end
$var wire 1 : write_enable $end
$var wire 1 ; latch_ctrl $end
$var wire 16 ` data_out [15:0] $end
$var wire 1 = busy $end
$var reg 32 a delay [31:0] $end
$var reg 2 b n_state [1:0] $end
$var reg 2 c state [1:0] $end
$upscope $end
$scope module IO_RD $end
$var wire 1 K activate $end
$var wire 1 , clk $end
$var wire 16 d data_in [15:0] $end
$var wire 1 e io_type $end
$var wire 1 7 io_ctrl $end
$var wire 16 f data_out [15:0] $end
$var wire 1 9 busy $end
$var reg 16 g data_reg [15:0] $end
$var reg 32 h delay [31:0] $end
$var reg 3 i n_state [2:0] $end
$var reg 3 j state [2:0] $end
$upscope $end
$scope module IO_WR $end
$var wire 1 M activate $end
$var wire 1 , clk $end
$var wire 16 k data_in [15:0] $end
$var wire 1 l io_type $end
$var wire 1 4 io_ctrl $end
$var wire 16 m data_out [15:0] $end
$var wire 1 6 busy $end
$var reg 16 n data_reg [15:0] $end
$var reg 32 o delay [31:0] $end
$var reg 3 p n_state [2:0] $end
$var reg 3 q state [2:0] $end
$upscope $end
$upscope $end
$scope module flash $end
$var event 1 r oe_event $end
$var wire 1 ( ALE $end
$var wire 1 s ALE_ipd $end
$var wire 1 & CENeg $end
$var wire 1 t CENeg_ipd $end
$var wire 1 ' CLE $end
$var wire 1 u CLE_ipd $end
$var wire 1 v Check_IO0_WENeg $end
$var wire 1 w Check_WENeg $end
$var wire 1 x IO0 $end
$var wire 1 y IO0_ipd $end
$var wire 1 z IO1 $end
$var wire 1 { IO1_ipd $end
$var wire 1 | IO2 $end
$var wire 1 } IO2_ipd $end
$var wire 1 ~ IO3 $end
$var wire 1 !" IO3_ipd $end
$var wire 1 "" IO4 $end
$var wire 1 #" IO4_ipd $end
$var wire 1 $" IO5 $end
$var wire 1 %" IO5_ipd $end
$var wire 1 &" IO6 $end
$var wire 1 '" IO6_ipd $end
$var wire 1 (" IO7 $end
$var wire 1 )" IO7_ipd $end
$var wire 1 " R $end
$var wire 1 % RENeg $end
$var wire 1 *" RENeg_ipd $end
$var wire 1 $ WENeg $end
$var wire 1 +" WENeg_ipd $end
$var wire 1 # WPNeg $end
$var wire 1 ," WPNeg_ipd $end
$var wire 1 -" deg $end
$var wire 1 ." gCE_n $end
$var wire 1 /" gRE_n $end
$var wire 1 0" gWE_n $end
$var wire 1 1" tADLCheck $end
$var wire 1 2" IO7_zd $end
$var wire 1 3" IO6_zd $end
$var wire 1 4" IO5_zd $end
$var wire 1 5" IO4_zd $end
$var wire 1 6" IO3_zd $end
$var wire 1 7" IO2_zd $end
$var wire 1 8" IO1_zd $end
$var wire 1 9" IO0_zd $end
$var wire 8 :" DOut [7:0] $end
$var wire 8 ;" DIn [7:0] $end
$var wire 1 <" BuffOutR $end
$var wire 8 =" A [7:0] $end
$var parameter 6 >" A0_CAC $end
$var parameter 6 ?" A0_PGD $end
$var parameter 6 @" A0_PRG $end
$var parameter 6 A" A0_PRG_CAC $end
$var parameter 6 B" A0_RD $end
$var parameter 6 C" A1_CAC $end
$var parameter 6 D" A1_ERS $end
$var parameter 6 E" A1_PGD $end
$var parameter 6 F" A1_PRG $end
$var parameter 6 G" A1_RD $end
$var parameter 6 H" A2_ERS $end
$var parameter 6 I" A2_PGD $end
$var parameter 6 J" A2_PRG $end
$var parameter 6 K" A2_RD $end
$var parameter 6 L" A3_PGD $end
$var parameter 6 M" BUFF_TR $end
$var parameter 32 N" BlockNum $end
$var parameter 32 O" BlockSize $end
$var parameter 6 P" CAC_PREL $end
$var parameter 6 Q" CBSYR $end
$var parameter 6 R" DATA_PRG $end
$var parameter 6 S" ERS_EXEC $end
$var parameter 32 T" HAddBitBl $end
$var parameter 32 U" HAddBitPag $end
$var parameter 32 V" HAddBitSeg $end
$var parameter 32 W" HAddBitSpareSeg $end
$var parameter 6 X" ID $end
$var parameter 6 Y" IDLE $end
$var parameter 6 Z" ID_PP $end
$var parameter 6 [" ID_PREL $end
$var parameter 6 \" ID_PREL_PP $end
$var parameter 32 ]" MainAreaAddBit $end
$var parameter 32 ^" MainSize $end
$var parameter 8 _" MaxData $end
$var parameter 6 `" OTP $end
$var parameter 32 a" OTPPageNum $end
$var parameter 6 b" OTP_ENTR1 $end
$var parameter 6 c" OTP_ENTR2 $end
$var parameter 32 d" OTP_file_name $end
$var parameter 6 e" PGD_PREL $end
$var parameter 6 f" PGMS $end
$var parameter 6 g" PGMS_CAC $end
$var parameter 6 h" PREL_ERS $end
$var parameter 6 i" PREL_OTP $end
$var parameter 6 j" PREL_PRG $end
$var parameter 6 k" PREL_RD $end
$var parameter 32 l" PageNum $end
$var parameter 32 m" PageNumInBl $end
$var parameter 32 n" PageSize $end
$var parameter 72 o" PartID $end
$var parameter 6 p" RD $end
$var parameter 6 q" RD_CACH $end
$var parameter 6 r" RD_OTP $end
$var parameter 6 s" RD_WCMD $end
$var parameter 6 t" RESET $end
$var parameter 32 u" SegmentNum $end
$var parameter 32 v" SegmentSize $end
$var parameter 32 w" SpareSize $end
$var parameter 32 x" SperSegSize $end
$var parameter 144 y" TimingModel $end
$var parameter 6 z" UNKNOWN $end
$var parameter 1 {" UserPreload $end
$var parameter 6 |" WFRD $end
$var parameter 32 }" mem_file_name $end
$var parameter 32 ~" preload_address_width $end
$var parameter 32 !# preload_data_width $end
$var parameter 32 "# preload_line_width $end
$var parameter 32 ## tdevice_BERS $end
$var parameter 32 $# tdevice_CBSYR $end
$var parameter 32 %# tdevice_PROG $end
$var parameter 32 &# tdevice_TR $end
$var parameter 32 '# thold_ALE_WENeg $end
$var parameter 32 (# thold_CENeg_WENeg $end
$var parameter 32 )# thold_CLE_WENeg $end
$var parameter 32 *# thold_IO0_CENeg $end
$var parameter 32 +# thold_IO0_RENeg $end
$var parameter 32 ,# thold_IO0_WENeg $end
$var parameter 32 -# thold_IO1_RENeg $end
$var parameter 32 .# tpd_CENeg_IO0 $end
$var parameter 32 /# tpd_RENeg_IO0 $end
$var parameter 32 0# tpd_WENeg_R $end
$var parameter 32 1# tperiod_RENeg $end
$var parameter 32 2# tperiod_WENeg $end
$var parameter 32 3# tperiod_WENeg_tADLCheck $end
$var parameter 32 4# tpw_RENeg_negedge $end
$var parameter 32 5# tpw_RENeg_posedge $end
$var parameter 32 6# tpw_WENeg_negedge $end
$var parameter 32 7# tpw_WENeg_posedge $end
$var parameter 32 8# tsetup_ALE_WENeg $end
$var parameter 32 9# tsetup_CENeg_RENeg $end
$var parameter 32 :# tsetup_CENeg_WENeg $end
$var parameter 32 ;# tsetup_CLE_RENeg $end
$var parameter 32 <# tsetup_CLE_WENeg $end
$var parameter 32 =# tsetup_IO0_WENeg $end
$var parameter 32 ># tsetup_RENeg_WENeg $end
$var parameter 32 ?# tsetup_R_RENeg $end
$var parameter 32 @# tsetup_WENeg_RENeg $end
$var parameter 32 A# tsetup_WPNeg_WENeg $end
$var reg 1 B# BuffInR $end
$var reg 1 C# CBSYR_in $end
$var reg 1 D# CBSYR_out $end
$var reg 16 E# ColAddr [15:0] $end
$var reg 8 F# DOut_zd [7:0] $end
$var reg 1 G# ERS_ACT $end
$var reg 1 H# ERS_in $end
$var reg 1 I# ERS_out $end
$var reg 1 J# FrstCachRd $end
$var reg 1 K# Id_ONFI $end
$var reg 512 L# OTPProgramedFlag [0:511] $end
$var reg 1 M# OTP_ACT $end
$var reg 1 N# PGD_ACT $end
$var reg 1 O# PGR_ACT $end
$var reg 1 P# PRG_ACT $end
$var reg 1 Q# PROG_in $end
$var reg 1 R# PROG_out $end
$var reg 1 S# PoweredUp $end
$var reg 88 T# ProgramedFlag [0:87] $end
$var reg 1 U# RD_CACH_ACT $end
$var reg 1 V# RD_CACH_LAST $end
$var reg 1 W# RSTDONE $end
$var reg 1 X# RSTSTART $end
$var reg 1 Y# RY_zd $end
$var reg 24 Z# RowAddr [23:0] $end
$var reg 64 [# RstErsT [63:0] $end
$var reg 64 \# RstProgT [63:0] $end
$var reg 64 ]# RstReadT [63:0] $end
$var reg 1 ^# STAT_ACT $end
$var reg 8 _# SegForProg [7:0] $end
$var reg 8 `# SegProgSt [7:0] $end
$var reg 8 a# Status [7:0] $end
$var reg 1 b# TR_in $end
$var reg 1 c# TR_out $end
$var reg 1 d# Viol $end
$var reg 1 e# WP_D $end
$var reg 6 f# current_state [5:0] $end
$var reg 1 g# deq $end
$var reg 64 h# duration_rst [63:0] $end
$var reg 64 i# erase_time [63:0] $end
$var reg 1 j# falling_edge_WENeg $end
$var reg 1 k# falling_edge_write $end
$var reg 1 l# firstFlag $end
$var reg 1 m# flagWRITE $end
$var reg 6 n# next_state [5:0] $end
$var reg 1 o# oe $end
$var reg 64 p# page_prog_time [63:0] $end
$var reg 64 q# poweredupT [63:0] $end
$var reg 64 r# prog_time [63:0] $end
$var reg 1 s# read $end
$var reg 1 t# reseted $end
$var reg 1 u# rising_edge_CBSYR_out $end
$var reg 1 v# rising_edge_ERS_out $end
$var reg 1 w# rising_edge_PROG_out $end
$var reg 1 x# rising_edge_PoweredUp $end
$var reg 1 y# rising_edge_RSTDONE $end
$var reg 1 z# rising_edge_RSTSTART $end
$var reg 1 {# rising_edge_TR_out $end
$var reg 1 |# rising_edge_WENeg $end
$var reg 1 }# rising_edge_reseted $end
$var reg 1 ~# tADL_check $end
$var reg 1 !$ write $end
$var integer 32 "$ AddrCom [31:0] $end
$var integer 32 #$ AddrWithinPage [31:0] $end
$var integer 32 $$ BlockAddr [31:0] $end
$var integer 32 %$ CPageWithinBlock [31:0] $end
$var integer 32 &$ CRdAddr [31:0] $end
$var integer 32 '$ CRdPage [31:0] $end
$var integer 32 ($ Data [31:0] $end
$var integer 32 )$ ErsBlck [31:0] $end
$var integer 32 *$ IDAddr [31:0] $end
$var integer 32 +$ PageAddr [31:0] $end
$var integer 32 ,$ PageWithinBlock [31:0] $end
$var integer 32 -$ ProgBlck [31:0] $end
$var integer 32 .$ ProgPage [31:0] $end
$var integer 32 /$ RdAddr [31:0] $end
$var integer 32 0$ RdBlck [31:0] $end
$var integer 32 1$ RdPage [31:0] $end
$var integer 32 2$ RdSeg [31:0] $end
$var integer 32 3$ TmpBlck [31:0] $end
$var integer 32 4$ TmpPage [31:0] $end
$var integer 32 5$ TmpSegm [31:0] $end
$var integer 32 6$ WER_01 [31:0] $end
$var integer 32 7$ WrAddr [31:0] $end
$var integer 32 8$ WrBlck [31:0] $end
$var integer 32 9$ WrPage [31:0] $end
$var integer 32 :$ WrSeg [31:0] $end
$var integer 32 ;$ i [31:0] $end
$var integer 32 <$ j [31:0] $end
$var integer 32 =$ memory_read_data [31:0] $end
$var integer 32 >$ pom_seg [31:0] $end
$scope module BUFR $end
$var wire 1 B# IN $end
$var wire 1 <" OUT $end
$upscope $end
$scope module memory_features_i0 $end
$var parameter 8 ?$ MaxData $end
$var parameter 32 @$ list_num $end
$var parameter 20 A$ list_size $end
$scope task corrupt_mem_w $end
$var integer 32 B$ address_high [31:0] $end
$var integer 32 C$ address_low [31:0] $end
$upscope $end
$scope task erase_mem_w $end
$var integer 32 D$ address_high [31:0] $end
$var integer 32 E$ address_low [31:0] $end
$upscope $end
$scope task initialize_w $end
$upscope $end
$scope task read_mem_w $end
$var integer 32 F$ address_a [31:0] $end
$var integer 32 G$ data_a [31:0] $end
$upscope $end
$scope task write_mem_w $end
$var integer 32 H$ address_a [31:0] $end
$var integer 32 I$ data_a [31:0] $end
$upscope $end
$upscope $end
$scope begin CacheRead $end
$upscope $end
$scope begin ErsTime $end
$upscope $end
$scope begin Functional $end
$upscope $end
$scope begin InitMemory $end
$var integer 32 J$ i [31:0] $end
$var integer 32 K$ j [31:0] $end
$upscope $end
$scope begin PageRead $end
$upscope $end
$scope begin ProgTime $end
$upscope $end
$scope begin PulseWatch $end
$upscope $end
$scope begin PulseWatch1 $end
$upscope $end
$scope begin PulseWatch3 $end
$upscope $end
$scope begin WPtiming $end
$upscope $end
$scope task Read_Data $end
$var integer 32 L$ Addr [31:0] $end
$var integer 32 M$ Page [31:0] $end
$var integer 32 N$ memory_read_data_internal [31:0] $end
$upscope $end
$scope task Read_OTP $end
$var integer 32 O$ Addr [31:0] $end
$var integer 32 P$ Page [31:0] $end
$upscope $end
$scope task getAddress $end
$var reg 16 Q$ Column [15:0] $end
$upscope $end
$scope task getPage $end
$var reg 24 R$ Row [23:0] $end
$upscope $end
$scope task getSegment $end
$var integer 32 S$ j [31:0] $end
$var integer 32 T$ paddress [31:0] $end
$upscope $end
$upscope $end
$upscope $end
$enddefinitions $end
$comment Show the parameter values. $end
$dumpall
b100001000000000000 A$
b10000000000 @$
b11111111 ?$
b1 A#
b1 @#
b1 ?#
b1 >#
b1 =#
b1 <#
b1 ;#
b1 :#
b1 9#
b1 8#
b1 7#
b1 6#
b1 5#
b1 4#
b1 3#
b1 2#
b1 1#
b1 0#
b1 /#
b1 .#
b1 -#
b1 ,#
b1 +#
b1 *#
b1 )#
b1 (#
b1 '#
b110000110101000 &#
b10101010111001100000 %#
b110000110101000 $#
b1011011100011011000000 ##
b10100000 "#
b10 !#
b111 ~"
b1101110011011110110111001100101 }"
b100111 |"
0{"
b1 z"
b10001000110010101100110011000010111010101101100011101000101010001101001011011010110100101101110011001110100110101101111011001000110010101101100 y"
b10000 x"
b1000000 w"
b1000000000 v"
b111 u"
b11 t"
b111 s"
b100100 r"
b100110 q"
b1001 p"
b11100110011001100110100011011010110110000110000001100010110011100110001 o"
b100000111111 n"
b10 m"
b1010 l"
b10 k"
b1111 j"
b100000 i"
b11000 h"
b10101 g"
b10111 f"
b10000 e"
b1101110011011110110111001100101 d"
b100010 c"
b100001 b"
b111111 a"
b100011 `"
b11111111 _"
b100000000000 ^"
b1011 ]"
b101000 \"
b1101 ["
b101001 Z"
b0 Y"
b1110 X"
b101 W"
b1010 V"
b10001 U"
b11011 T"
b11011 S"
b10100 R"
b100101 Q"
b1010 P"
b1 O"
b1111 N"
b1000 M"
b11111 L"
b110 K"
b10011 J"
b11110 I"
b11010 H"
b101 G"
b10010 F"
b11101 E"
b11001 D"
b1100 C"
b100 B"
b10110 A"
b10001 @"
b11100 ?"
b1011 >"
$end
#0
$dumpvars
bx T$
bx S$
bx R$
bx Q$
bx P$
bx O$
bx N$
bx M$
bx L$
b100001000000 K$
b1000000 J$
bx I$
bx H$
bx G$
bx F$
bx E$
bx D$
bx C$
bx B$
bx >$
bx =$
b1000000 <$
b100 ;$
bx :$
b11111111111111111111111111111111 9$
bx 8$
b11111111111111111111111111111111 7$
b0 6$
bx 5$
bx 4$
bx 3$
bx 2$
bx 1$
bx 0$
bx /$
bx .$
bx -$
bx ,$
b11111111111111111111111111111111 +$
bx *$
bx )$
bx ($
bx '$
bx &$
bx %$
b11111111111111111111111111111111 $$
bx #$
bx "$
0!$
0~#
0}#
0|#
0{#
0z#
0y#
0x#
0w#
0v#
0u#
0t#
0s#
bx r#
b11000011010100000 q#
bx p#
0o#
b0 n#
1m#
0l#
0k#
0j#
bx i#
bx h#
xg#
b0 f#
xe#
0d#
0c#
0b#
b1100100 a#
b0 `#
bx _#
0^#
b1001110001000 ]#
b10011100010000 \#
b1111010000100100000 [#
bx Z#
1Y#
0X#
0W#
0V#
0U#
bx T#
0S#
0R#
0Q#
0P#
0O#
0N#
0M#
bx L#
xK#
xJ#
xI#
xH#
0G#
bz F#
bx E#
0D#
0C#
1B#
bx ="
1<"
bx ;"
bx :"
z9"
z8"
z7"
z6"
z5"
z4"
z3"
z2"
01"
x0"
x/"
x."
x-"
0,"
1+"
0*"
x)"
x("
x'"
x&"
x%"
x$"
x#"
x""
x!"
x~
x}
x|
x{
xz
xy
xx
0w
0v
0u
1t
0s
1r
b0 q
b0 p
bx o
bx n
b0 m
1l
bx k
b0 j
b0 i
bx h
bx g
bx f
0e
bx d
b0 c
b0 b
b0 a
b0 `
0_
bx ^
b0 ]
b0 \
b0 [
b0 Z
1Y
bx X
bx W
b0 V
b1000 U
b1 T
b0 S
bx R
bx Q
b0 P
b1 O
bx N
xM
bx L
xK
b0 J
bx I
bx H
bx G
xF
b0 E
bx D
xC
bx B
0A
b0 @
0?
1>
0=
b0 <
0;
1:
09
bx 8
17
06
b0 5
14
bx 3
02
bx 1
bx 0
1/
bx .
bx -
1,
x+
x*
bx )
0(
0'
1&
0%
1$
0#
1"
bx !
$end
#100
0+
#500
0,
10"
0/"
1."
#1000
1*"
b100 ;$
b1000000 <$
b100 B
b10000 R
b1000000000 H
b0 T
0M
0K
0C
0F
1%
1*
1,
#1100
b11111111 ="
b11111111 ;"
1-"
1g#
b11111111 :"
1)"
1'"
1%"
1#"
1!"
1}
1{
1y
1("
1&"
1$"
1""
1~
1|
1z
1x
b1111111111111111 !
b1111111111111111 3
bz Q
0/
#1500
1/"
0,
#2000
b1 T
b1111111111111111 L
b1111111111111111 d
0*
1,
#2100
1/
#2500
0,
#3000
b0 T
1*
1,
#3500
0,
#4000
0*
1,
